StartFontMetrics 2.0
Comment Generated by FontForge 20120731
Comment Creation Date: Thu Aug 14 23:28:43 2014
FontName Gastly
FullName Gastly
FamilyName mduffor
Weight Regular
Notice ()
ItalicAngle 0
IsFixedPitch true
UnderlinePosition 0
UnderlineThickness 0
Version 
EncodingScheme ISOLatin1Encoding
FontBBox -9 -181 977 977
CapHeight 366
XHeight 223
Ascender 349
Descender -158
StartCharMetrics 92
C 0 ; WX 1000 ; WY 87 ; N .notdef ; B 0 0 977 977 ;
C 33 ; WX 1000 ; WY 87 ; N Exclamation ; B -2 -2 145 427 ;
C 34 ; WX 1000 ; WY 87 ; N RDQuote ; B -2 277 171 397 ;
C 38 ; WX 1000 ; WY 87 ; N Ampersand ; B -1 8 435 467 ;
C 39 ; WX 1000 ; WY 87 ; N RSQuote ; B -1 296 69 415 ;
C 40 ; WX 1000 ; WY 87 ; N LParen ; B -1 -72 149 451 ;
C 41 ; WX 1000 ; WY 87 ; N RParen ; B -1 -106 169 477 ;
C 42 ; WX 1000 ; WY 87 ; N Asterisk ; B -2 60 294 441 ;
C 43 ; WX 1000 ; WY 87 ; N Plus ; B -1 81 305 405 ;
C 44 ; WX 1000 ; WY 87 ; N Comma ; B -1 -93 91 71 ;
C 45 ; WX 1000 ; WY 87 ; N Minus ; B -2 171 337 298 ;
C 46 ; WX 1000 ; WY 87 ; N Period ; B -2 15 67 82 ;
C 47 ; WX 1000 ; WY 87 ; N FSlash ; B -1 -87 271 421 ;
C 48 ; WX 1000 ; WY 87 ; N 0 ; B 0 3 267 376 ;
C 49 ; WX 1000 ; WY 87 ; N 1 ; B -2 -15 190 280 ;
C 50 ; WX 1000 ; WY 87 ; N 2 ; B -2 -29 295 382 ;
C 51 ; WX 1000 ; WY 87 ; N 3 ; B -1 -46 268 363 ;
C 52 ; WX 1000 ; WY 87 ; N 4 ; B -1 -29 307 434 ;
C 53 ; WX 1000 ; WY 87 ; N 5 ; B -3 -152 331 384 ;
C 54 ; WX 1000 ; WY 87 ; N 6 ; B -1 -28 258 421 ;
C 55 ; WX 1000 ; WY 87 ; N 7 ; B -1 -165 319 336 ;
C 56 ; WX 1000 ; WY 87 ; N 8 ; B -1 1 219 442 ;
C 57 ; WX 1000 ; WY 87 ; N 9 ; B -1 -94 269 458 ;
C 58 ; WX 1000 ; WY 87 ; N Colon ; B -1 9 63 195 ;
C 59 ; WX 1000 ; WY 87 ; N SemiColon ; B -1 -71 69 190 ;
C 60 ; WX 1000 ; WY 87 ; N Less ; B -2 11 220 478 ;
C 61 ; WX 1000 ; WY 87 ; N Equals ; B -2 46 411 286 ;
C 62 ; WX 1000 ; WY 87 ; N Greater ; B -2 1 210 457 ;
C 63 ; WX 1000 ; WY 87 ; N Question ; B -1 -20 245 447 ;
C 64 ; WX 1000 ; WY 87 ; N At ; B -2 -129 622 503 ;
C 65 ; WX 1000 ; WY 87 ; N A ; B -2 -7 448 420 ;
C 66 ; WX 1000 ; WY 87 ; N B ; B -2 -5 339 375 ;
C 67 ; WX 1000 ; WY 87 ; N C ; B -1 -12 284 367 ;
C 68 ; WX 1000 ; WY 87 ; N D ; B 0 -20 362 346 ;
C 69 ; WX 1000 ; WY 87 ; N E ; B 0 -15 324 361 ;
C 70 ; WX 1000 ; WY 87 ; N F ; B -2 -9 290 386 ;
C 71 ; WX 1000 ; WY 87 ; N G ; B -1 -17 310 336 ;
C 72 ; WX 1000 ; WY 87 ; N H ; B -1 -10 400 369 ;
C 73 ; WX 1000 ; WY 87 ; N I ; B -1 -11 158 348 ;
C 74 ; WX 1000 ; WY 87 ; N J ; B -1 -9 246 344 ;
C 75 ; WX 1000 ; WY 87 ; N K ; B -3 -5 418 390 ;
C 76 ; WX 1000 ; WY 87 ; N L ; B -3 -8 274 343 ;
C 77 ; WX 1000 ; WY 87 ; N M ; B -2 -7 460 355 ;
C 78 ; WX 1000 ; WY 87 ; N N ; B -1 -43 358 342 ;
C 79 ; WX 1000 ; WY 87 ; N O ; B -1 -11 304 363 ;
C 80 ; WX 1000 ; WY 87 ; N P ; B -3 -11 280 330 ;
C 81 ; WX 1000 ; WY 87 ; N Q ; B -2 -106 395 360 ;
C 82 ; WX 1000 ; WY 87 ; N R ; B -2 -15 355 336 ;
C 83 ; WX 1000 ; WY 87 ; N S ; B -3 -25 235 368 ;
C 84 ; WX 1000 ; WY 87 ; N T ; B -2 -26 376 358 ;
C 85 ; WX 1000 ; WY 87 ; N U ; B -1 -5 351 358 ;
C 86 ; WX 1000 ; WY 87 ; N V ; B -2 -19 365 384 ;
C 87 ; WX 1000 ; WY 87 ; N W ; B -2 -20 612 393 ;
C 88 ; WX 1000 ; WY 87 ; N X ; B -1 -12 418 368 ;
C 89 ; WX 1000 ; WY 87 ; N Y ; B -1 -8 413 400 ;
C 90 ; WX 1000 ; WY 87 ; N Z ; B -3 -19 315 352 ;
C 91 ; WX 1000 ; WY 87 ; N LBracket ; B -2 -78 167 496 ;
C 92 ; WX 1000 ; WY 87 ; N BSlash ; B -2 -110 273 451 ;
C 93 ; WX 1000 ; WY 87 ; N RBracket ; B -3 -69 170 508 ;
C 94 ; WX 1000 ; WY 87 ; N Caret ; B -1 332 278 511 ;
C 95 ; WX 1000 ; WY 87 ; N Underline ; B 0 -64 414 1 ;
C 97 ; WX 1000 ; WY 87 ; N a ; B -1 -8 241 216 ;
C 98 ; WX 1000 ; WY 87 ; N b ; B -4 -15 258 371 ;
C 99 ; WX 1000 ; WY 87 ; N c ; B -2 -8 203 233 ;
C 100 ; WX 1000 ; WY 87 ; N d ; B -1 -9 281 354 ;
C 101 ; WX 1000 ; WY 87 ; N e ; B -1 -8 203 224 ;
C 102 ; WX 1000 ; WY 87 ; N f ; B -2 -11 235 368 ;
C 103 ; WX 1000 ; WY 87 ; N g ; B -1 -181 234 230 ;
C 104 ; WX 1000 ; WY 87 ; N h ; B -3 -12 299 349 ;
C 105 ; WX 1000 ; WY 87 ; N i ; B -1 -6 117 362 ;
C 106 ; WX 1000 ; WY 87 ; N j ; B -1 -167 121 349 ;
C 107 ; WX 1000 ; WY 87 ; N k ; B -2 -16 262 349 ;
C 108 ; WX 1000 ; WY 87 ; N l ; B -1 -4 113 360 ;
C 109 ; WX 1000 ; WY 87 ; N m ; B -1 -13 338 203 ;
C 110 ; WX 1000 ; WY 87 ; N n ; B -2 -14 269 214 ;
C 111 ; WX 1000 ; WY 87 ; N o ; B -1 -4 241 219 ;
C 112 ; WX 1000 ; WY 87 ; N p ; B -1 -170 270 215 ;
C 113 ; WX 1000 ; WY 87 ; N q ; B -1 -161 243 255 ;
C 114 ; WX 1000 ; WY 87 ; N r ; B -3 -6 212 229 ;
C 115 ; WX 1000 ; WY 87 ; N s ; B -1 -25 203 246 ;
C 116 ; WX 1000 ; WY 87 ; N t ; B -9 -5 151 272 ;
C 117 ; WX 1000 ; WY 87 ; N u ; B -2 -2 321 218 ;
C 118 ; WX 1000 ; WY 87 ; N v ; B -2 1 257 199 ;
C 119 ; WX 1000 ; WY 87 ; N w ; B 0 -15 385 210 ;
C 120 ; WX 1000 ; WY 87 ; N x ; B -1 -10 304 232 ;
C 121 ; WX 1000 ; WY 87 ; N y ; B -1 -115 313 221 ;
C 122 ; WX 1000 ; WY 87 ; N z ; B -3 -18 237 233 ;
C 123 ; WX 1000 ; WY 87 ; N LSBracket ; B -2 -50 167 519 ;
C 124 ; WX 1000 ; WY 87 ; N Bar ; B 0 -41 109 501 ;
C 125 ; WX 1000 ; WY 87 ; N RSBracket ; B 0 -45 165 523 ;
C 126 ; WX 1000 ; WY 87 ; N Tilda ; B -1 128 338 259 ;
C -1 ; WX 1000 ; WY 87 ; N LDQuote ; B 357 553 530 672 ;
EndCharMetrics
EndFontMetrics
